<svg width="208" height="322" viewBox="0 0 208 322" fill="none" xmlns="http://www.w3.org/2000/svg">
<path d="M200.3 178L64.3 314C54.9 323.4 39.7 323.4 30.4 314L7.8 291.4C-1.6 282 -1.6 266.8 7.8 257.5L104.2 161.1L7.8 64.7C-1.6 55.3 -1.6 40.1 7.8 30.8L30.3 8C39.7 -1.4 54.9 -1.4 64.2 8L200.2 144C209.7 153.4 209.7 168.6 200.3 178V178Z" fill="#B3B3B3"/>
</svg>
